{
  "count": 68575,
  "next": "https://gutendex.com/books/?page=3",
  "previous": "https://gutendex.com/books/",
  "results": [
    {
      "id": 996,
      "title": "Don Quixote",
      "authors": [
        {
          "name": "Cervantes Saavedra, Miguel de",
          "birth_year": 1547,
          "death_year": 1616
        }
      ],
      "translators": [
        {
          "name": "Ormsby, John",
          "birth_year": 1829,
          "death_year": 1895
        }
      ],
      "subjects": [
        "Knights and knighthood -- Spain -- Fiction",
        "Picaresque literature",
        "Romances",
        "Spain -- Social life and customs -- 16th century -- Fiction"
      ],
      "bookshelves": [
        "Best Books Ever Listings",
        "Harvard Classics"
      ],
      "languages": [
        "en"
      ],
      "copyright": false,
      "media_type": "Text",
      "formats": {
        "application/x-mobipocket-ebook": "https://www.gutenberg.org/ebooks/996.kindle.images",
        "application/rdf+xml": "https://www.gutenberg.org/ebooks/996.rdf",
        "application/epub+zip": "https://www.gutenberg.org/ebooks/996.epub.images",
        "text/html": "https://www.gutenberg.org/ebooks/996.html.images",
        "application/zip": "https://www.gutenberg.org/files/996/996-h.zip",
        "text/plain": "https://www.gutenberg.org/ebooks/996.txt.utf-8",
        "image/jpeg": "https://www.gutenberg.org/cache/epub/996/pg996.cover.small.jpg",
        "text/plain; charset=us-ascii": "https://www.gutenberg.org/files/996/996-0.txt"
      },
      "download_count": 6810
    },
    {
      "id": 120,
      "title": "Treasure Island",
      "authors": [
        {
          "name": "Stevenson, Robert Louis",
          "birth_year": 1850,
          "death_year": 1894
        }
      ],
      "translators": [],
      "subjects": [
        "Pirates -- Fiction",
        "Sea stories",
        "Treasure Island (Imaginary place) -- Fiction",
        "Treasure troves -- Fiction"
      ],
      "bookshelves": [
        "Best Books Ever Listings",
        "Children's Literature",
        "Historical Fiction",
        "Pirates, Buccaneers, Corsairs, etc."
      ],
      "languages": [
        "en"
      ],
      "copyright": false,
      "media_type": "Text",
      "formats": {
        "text/plain; charset=us-ascii": "https://www.gutenberg.org/files/120/120-0.txt",
        "image/jpeg": "https://www.gutenberg.org/cache/epub/120/pg120.cover.small.jpg",
        "application/epub+zip": "https://www.gutenberg.org/ebooks/120.epub.images",
        "application/rdf+xml": "https://www.gutenberg.org/ebooks/120.rdf",
        "application/x-mobipocket-ebook": "https://www.gutenberg.org/ebooks/120.kindle.images",
        "text/plain": "https://www.gutenberg.org/ebooks/120.txt.utf-8",
        "application/octet-stream": "https://www.gutenberg.org/files/120/120-h.zip",
        "application/zip": "https://www.gutenberg.org/files/120/120-0.zip",
        "text/html": "https://www.gutenberg.org/ebooks/120.html.images"
      },
      "download_count": 6795
    },
    {
      "id": 30254,
      "title": "The Romance of Lust: A classic Victorian erotic novel",
      "authors": [
        {
          "name": "Anonymous",
          "birth_year": null,
          "death_year": null
        }
      ],
      "translators": [],
      "subjects": [
        "Corporal punishment -- Fiction",
        "Erotic stories",
        "Incest -- Fiction",
        "Pornography",
        "Rape -- Fiction",
        "Sexual dominance and submission -- Fiction"
      ],
      "bookshelves": [],
      "languages": [
        "en"
      ],
      "copyright": false,
      "media_type": "Text",
      "formats": {
        "text/html; charset=utf-8": "https://www.gutenberg.org/files/30254/30254-h/30254-h.htm",
        "application/rdf+xml": "https://www.gutenberg.org/ebooks/30254.rdf",
        "application/x-mobipocket-ebook": "https://www.gutenberg.org/ebooks/30254.kindle.images",
        "application/epub+zip": "https://www.gutenberg.org/ebooks/30254.epub.images",
        "application/zip": "https://www.gutenberg.org/files/30254/30254-h.zip",
        "image/jpeg": "https://www.gutenberg.org/cache/epub/30254/pg30254.cover.small.jpg",
        "text/plain; charset=utf-8": "https://www.gutenberg.org/files/30254/30254-0.txt",
        "text/html": "https://www.gutenberg.org/ebooks/30254.html.images"
      },
      "download_count": 6784
    },
    {
      "id": 844,
      "title": "The Importance of Being Earnest: A Trivial Comedy for Serious People",
      "authors": [
        {
          "name": "Wilde, Oscar",
          "birth_year": 1854,
          "death_year": 1900
        }
      ],
      "translators": [],
      "subjects": [
        "Comedies",
        "England -- Drama",
        "Foundlings -- Drama",
        "Identity (Psychology) -- Drama"
      ],
      "bookshelves": [
        "Plays"
      ],
      "languages": [
        "en"
      ],
      "copyright": false,
      "media_type": "Text",
      "formats": {
        "application/epub+zip": "https://www.gutenberg.org/ebooks/844.epub.images",
        "application/rdf+xml": "https://www.gutenberg.org/ebooks/844.rdf",
        "application/x-mobipocket-ebook": "https://www.gutenberg.org/ebooks/844.kindle.images",
        "image/jpeg": "https://www.gutenberg.org/cache/epub/844/pg844.cover.medium.jpg",
        "text/html": "https://www.gutenberg.org/ebooks/844.html.images",
        "text/plain; charset=utf-8": "https://www.gutenberg.org/files/844/844-0.txt"
      },
      "download_count": 6535
    },
    {
      "id": 768,
      "title": "Wuthering Heights",
      "authors": [
        {
          "name": "Brontë, Emily",
          "birth_year": 1818,
          "death_year": 1848
        }
      ],
      "translators": [],
      "subjects": [
        "Domestic fiction",
        "Foundlings -- Fiction",
        "Heathcliff (Fictitious character : Brontë) -- Fiction",
        "Love stories",
        "Psychological fiction",
        "Rejection (Psychology) -- Fiction",
        "Revenge -- Fiction",
        "Rural families -- Fiction",
        "Triangles (Interpersonal relations) -- Fiction",
        "Yorkshire (England) -- Fiction"
      ],
      "bookshelves": [
        "Best Books Ever Listings",
        "Gothic Fiction",
        "Movie Books"
      ],
      "languages": [
        "en"
      ],
      "copyright": false,
      "media_type": "Text",
      "formats": {
        "text/plain; charset=us-ascii": "https://www.gutenberg.org/files/768/768-0.txt",
        "application/epub+zip": "https://www.gutenberg.org/ebooks/768.epub.images",
        "application/rdf+xml": "https://www.gutenberg.org/ebooks/768.rdf",
        "application/x-mobipocket-ebook": "https://www.gutenberg.org/ebooks/768.kindle.images",
        "image/jpeg": "https://www.gutenberg.org/cache/epub/768/pg768.cover.medium.jpg",
        "application/zip": "https://www.gutenberg.org/files/768/768-0.zip",
        "text/html": "https://www.gutenberg.org/ebooks/768.html.images",
        "text/plain": "https://www.gutenberg.org/ebooks/768.txt.utf-8"
      },
      "download_count": 6458
    },
    {
      "id": 55,
      "title": "The Wonderful Wizard of Oz",
      "authors": [
        {
          "name": "Baum, L. Frank (Lyman Frank)",
          "birth_year": 1856,
          "death_year": 1919
        }
      ],
      "translators": [],
      "subjects": [
        "Courage -- Juvenile fiction",
        "Cowardly Lion (Fictitious character) -- Juvenile fiction",
        "Cyclones -- Juvenile fiction",
        "Dreams -- Juvenile fiction",
        "Fantasy literature",
        "Gale, Dorothy (Fictitious character) -- Juvenile fiction",
        "Good and evil -- Juvenile fiction",
        "Home -- Juvenile fiction",
        "Oz (Imaginary place) -- Juvenile fiction",
        "Scarecrow (Fictitious character from Baum) -- Juvenile fiction",
        "Tin Woodman (Fictitious character) -- Juvenile fiction",
        "Toto (Fictitious character) -- Juvenile fiction",
        "Witches -- Juvenile fiction",
        "Wizard of Oz (Fictitious character) -- Juvenile fiction"
      ],
      "bookshelves": [
        "Children's Literature",
        "Fantasy"
      ],
      "languages": [
        "en"
      ],
      "copyright": false,
      "media_type": "Text",
      "formats": {
        "application/epub+zip": "https://www.gutenberg.org/ebooks/55.epub.images",
        "application/rdf+xml": "https://www.gutenberg.org/ebooks/55.rdf",
        "application/x-mobipocket-ebook": "https://www.gutenberg.org/ebooks/55.kindle.images",
        "image/jpeg": "https://www.gutenberg.org/cache/epub/55/pg55.cover.medium.jpg",
        "application/zip": "https://www.gutenberg.org/files/55/55-h.zip",
        "text/plain; charset=utf-8": "https://www.gutenberg.org/files/55/55-0.txt",
        "text/html; charset=utf-8": "https://www.gutenberg.org/files/55/55-h/55-h.htm",
        "text/html": "https://www.gutenberg.org/ebooks/55.html.images"
      },
      "download_count": 6442
    },
    {
      "id": 67098,
      "title": "Winnie-the-Pooh",
      "authors": [
        {
          "name": "Milne, A. A. (Alan Alexander)",
          "birth_year": 1882,
          "death_year": 1956
        }
      ],
      "translators": [],
      "subjects": [
        "Christopher Robin (Fictitious character) -- Juvenile fiction",
        "Eeyore (Fictitious character) -- Juvenile fiction",
        "Piglet (Fictitious character) -- Juvenile fiction",
        "Teddy bears -- Juvenile fiction",
        "Toys -- Juvenile fiction",
        "Winnie-the-Pooh (Fictitious character) -- Juvenile fiction"
      ],
      "bookshelves": [],
      "languages": [
        "en"
      ],
      "copyright": false,
      "media_type": "Text",
      "formats": {
        "application/zip": "https://www.gutenberg.org/files/67098/67098-h.zip",
        "application/x-mobipocket-ebook": "https://www.gutenberg.org/ebooks/67098.kindle.images",
        "text/plain": "https://www.gutenberg.org/ebooks/67098.txt.utf-8",
        "application/epub+zip": "https://www.gutenberg.org/ebooks/67098.epub.images",
        "application/rdf+xml": "https://www.gutenberg.org/ebooks/67098.rdf",
        "text/html": "https://www.gutenberg.org/ebooks/67098.html.images",
        "image/jpeg": "https://www.gutenberg.org/cache/epub/67098/pg67098.cover.small.jpg",
        "text/plain; charset=us-ascii": "https://www.gutenberg.org/files/67098/67098-0.txt"
      },
      "download_count": 6411
    },
    {
      "id": 2680,
      "title": "Meditations",
      "authors": [
        {
          "name": "Marcus Aurelius, Emperor of Rome",
          "birth_year": 121,
          "death_year": 180
        }
      ],
      "translators": [],
      "subjects": [
        "Ethics",
        "Life",
        "Stoics"
      ],
      "bookshelves": [
        "Harvard Classics"
      ],
      "languages": [
        "en"
      ],
      "copyright": false,
      "media_type": "Text",
      "formats": {
        "application/x-mobipocket-ebook": "https://www.gutenberg.org/ebooks/2680.kindle.images",
        "application/epub+zip": "https://www.gutenberg.org/ebooks/2680.epub.images",
        "application/rdf+xml": "https://www.gutenberg.org/ebooks/2680.rdf",
        "text/plain; charset=utf-8": "https://www.gutenberg.org/files/2680/2680-0.zip",
        "text/html; charset=us-ascii": "https://www.gutenberg.org/files/2680/2680-h.zip",
        "text/html": "https://www.gutenberg.org/ebooks/2680.html.images",
        "image/jpeg": "https://www.gutenberg.org/cache/epub/2680/pg2680.cover.medium.jpg"
      },
      "download_count": 6298
    },
    {
      "id": 158,
      "title": "Emma",
      "authors": [
        {
          "name": "Austen, Jane",
          "birth_year": 1775,
          "death_year": 1817
        }
      ],
      "translators": [],
      "subjects": [
        "Bildungsromans",
        "England -- Fiction",
        "Fathers and daughters -- Fiction",
        "Female friendship -- Fiction",
        "Humorous stories",
        "Love stories",
        "Mate selection -- Fiction",
        "Young women -- Fiction"
      ],
      "bookshelves": [],
      "languages": [
        "en"
      ],
      "copyright": false,
      "media_type": "Text",
      "formats": {
        "text/plain; charset=us-ascii": "https://www.gutenberg.org/files/158/158-0.txt",
        "application/epub+zip": "https://www.gutenberg.org/ebooks/158.epub.images",
        "application/rdf+xml": "https://www.gutenberg.org/ebooks/158.rdf",
        "application/x-mobipocket-ebook": "https://www.gutenberg.org/ebooks/158.kindle.images",
        "text/html": "https://www.gutenberg.org/files/158/158-h/158-h.htm",
        "application/zip": "https://www.gutenberg.org/files/158/158-0.zip",
        "application/octet-stream": "https://www.gutenberg.org/files/158/158-h.zip",
        "image/jpeg": "https://www.gutenberg.org/cache/epub/158/pg158.cover.medium.jpg",
        "text/plain": "https://www.gutenberg.org/ebooks/158.txt.utf-8"
      },
      "download_count": 6245
    },
    {
      "id": 46,
      "title": "A Christmas Carol in Prose; Being a Ghost Story of Christmas",
      "authors": [
        {
          "name": "Dickens, Charles",
          "birth_year": 1812,
          "death_year": 1870
        }
      ],
      "translators": [],
      "subjects": [
        "Christmas stories",
        "Ghost stories",
        "London (England) -- Fiction",
        "Misers -- Fiction",
        "Poor families -- Fiction",
        "Scrooge, Ebenezer (Fictitious character) -- Fiction",
        "Sick children -- Fiction"
      ],
      "bookshelves": [
        "Children's Literature",
        "Christmas"
      ],
      "languages": [
        "en"
      ],
      "copyright": false,
      "media_type": "Text",
      "formats": {
        "application/epub+zip": "https://www.gutenberg.org/ebooks/46.epub.images",
        "application/rdf+xml": "https://www.gutenberg.org/ebooks/46.rdf",
        "application/x-mobipocket-ebook": "https://www.gutenberg.org/ebooks/46.kindle.images",
        "text/plain; charset=us-ascii": "https://www.gutenberg.org/files/46/46-0.txt",
        "text/html": "https://www.gutenberg.org/ebooks/46.html.images",
        "image/jpeg": "https://www.gutenberg.org/cache/epub/46/pg46.cover.small.jpg",
        "application/zip": "https://www.gutenberg.org/files/46/46-h.zip",
        "text/plain": "https://www.gutenberg.org/ebooks/46.txt.utf-8"
      },
      "download_count": 6223
    },
    {
      "id": 2852,
      "title": "The Hound of the Baskervilles",
      "authors": [
        {
          "name": "Doyle, Arthur Conan",
          "birth_year": 1859,
          "death_year": 1930
        }
      ],
      "translators": [],
      "subjects": [
        "Blessing and cursing -- Fiction",
        "Dartmoor (England) -- Fiction",
        "Detective and mystery stories",
        "Dogs -- Fiction",
        "Holmes, Sherlock (Fictitious character) -- Fiction",
        "Private investigators -- England -- Fiction"
      ],
      "bookshelves": [
        "Bestsellers, American, 1895-1923",
        "Detective Fiction"
      ],
      "languages": [
        "en"
      ],
      "copyright": false,
      "media_type": "Text",
      "formats": {
        "application/zip": "https://www.gutenberg.org/files/2852/2852-0.zip",
        "text/html; charset=utf-8": "https://www.gutenberg.org/files/2852/2852-h.zip",
        "image/jpeg": "https://www.gutenberg.org/cache/epub/2852/pg2852.cover.medium.jpg",
        "text/plain; charset=utf-8": "https://www.gutenberg.org/files/2852/2852-0.txt",
        "application/x-mobipocket-ebook": "https://www.gutenberg.org/ebooks/2852.kindle.images",
        "application/epub+zip": "https://www.gutenberg.org/ebooks/2852.epub.images",
        "application/rdf+xml": "https://www.gutenberg.org/ebooks/2852.rdf",
        "text/html": "https://www.gutenberg.org/ebooks/2852.html.images"
      },
      "download_count": 6185
    },
    {
      "id": 205,
      "title": "Walden, and On The Duty Of Civil Disobedience",
      "authors": [
        {
          "name": "Thoreau, Henry David",
          "birth_year": 1817,
          "death_year": 1862
        }
      ],
      "translators": [],
      "subjects": [
        "Authors, American -- 19th century -- Biography",
        "Civil disobedience",
        "Government, Resistance to",
        "Natural history -- Massachusetts -- Walden Woods",
        "Solitude",
        "Thoreau, Henry David, 1817-1862 -- Homes and haunts -- Massachusetts -- Walden Woods",
        "Walden Woods (Mass.) -- Social life and customs",
        "Wilderness areas -- Massachusetts -- Walden Woods"
      ],
      "bookshelves": [],
      "languages": [
        "en"
      ],
      "copyright": false,
      "media_type": "Text",
      "formats": {
        "text/html; charset=utf-8": "https://www.gutenberg.org/files/205/205-h/205-h.htm",
        "application/epub+zip": "https://www.gutenberg.org/ebooks/205.epub.images",
        "application/rdf+xml": "https://www.gutenberg.org/ebooks/205.rdf",
        "application/x-mobipocket-ebook": "https://www.gutenberg.org/ebooks/205.kindle.images",
        "text/plain; charset=utf-8": "https://www.gutenberg.org/files/205/205-0.txt",
        "image/jpeg": "https://www.gutenberg.org/cache/epub/205/pg205.cover.medium.jpg",
        "text/html": "https://www.gutenberg.org/ebooks/205.html.images"
      },
      "download_count": 6116
    },
    {
      "id": 219,
      "title": "Heart of Darkness",
      "authors": [
        {
          "name": "Conrad, Joseph",
          "birth_year": 1857,
          "death_year": 1924
        }
      ],
      "translators": [],
      "subjects": [
        "Africa -- Fiction",
        "Degeneration -- Fiction",
        "Europeans -- Africa -- Fiction",
        "Imperialism -- Fiction",
        "Psychological fiction",
        "Trading posts -- Fiction"
      ],
      "bookshelves": [
        "Best Books Ever Listings",
        "Movie Books"
      ],
      "languages": [
        "en"
      ],
      "copyright": false,
      "media_type": "Text",
      "formats": {
        "application/epub+zip": "https://www.gutenberg.org/ebooks/219.epub.images",
        "application/rdf+xml": "https://www.gutenberg.org/ebooks/219.rdf",
        "application/x-mobipocket-ebook": "https://www.gutenberg.org/ebooks/219.kindle.images",
        "text/html; charset=utf-8": "https://www.gutenberg.org/files/219/219-h/219-h.htm",
        "application/zip": "https://www.gutenberg.org/files/219/219-0.zip",
        "image/jpeg": "https://www.gutenberg.org/cache/epub/219/pg219.cover.medium.jpg",
        "text/html": "https://www.gutenberg.org/ebooks/219.html.images",
        "text/plain; charset=utf-8": "https://www.gutenberg.org/files/219/219-0.txt"
      },
      "download_count": 6042
    },
    {
      "id": 16,
      "title": "Peter Pan",
      "authors": [
        {
          "name": "Barrie, J. M. (James Matthew)",
          "birth_year": 1860,
          "death_year": 1937
        }
      ],
      "translators": [],
      "subjects": [
        "Fairies -- Fiction",
        "Fantasy literature",
        "Never-Never Land (Imaginary place) -- Fiction",
        "Peter Pan (Fictitious character) -- Fiction",
        "Pirates -- Fiction"
      ],
      "bookshelves": [
        "Children's Literature",
        "Movie Books"
      ],
      "languages": [
        "en"
      ],
      "copyright": false,
      "media_type": "Text",
      "formats": {
        "image/jpeg": "https://www.gutenberg.org/cache/epub/16/pg16.cover.medium.jpg",
        "application/epub+zip": "https://www.gutenberg.org/ebooks/16.epub.images",
        "application/rdf+xml": "https://www.gutenberg.org/ebooks/16.rdf",
        "application/x-mobipocket-ebook": "https://www.gutenberg.org/ebooks/16.kindle.images",
        "text/html; charset=utf-8": "https://www.gutenberg.org/files/16/16-h.zip",
        "text/plain; charset=utf-8": "https://www.gutenberg.org/files/16/16-0.txt",
        "application/zip": "https://www.gutenberg.org/files/16/16-0.zip",
        "text/html": "https://www.gutenberg.org/ebooks/16.html.images"
      },
      "download_count": 5900
    },
    {
      "id": 135,
      "title": "Les Misérables",
      "authors": [
        {
          "name": "Hugo, Victor",
          "birth_year": 1802,
          "death_year": 1885
        }
      ],
      "translators": [
        {
          "name": "Hapgood, Isabel Florence",
          "birth_year": 1850,
          "death_year": 1928
        }
      ],
      "subjects": [
        "Epic literature",
        "Ex-convicts -- Fiction",
        "Historical fiction",
        "Orphans -- Fiction",
        "Paris (France) -- Fiction"
      ],
      "bookshelves": [
        "Banned Books from Anne Haight's list",
        "Historical Fiction"
      ],
      "languages": [
        "en"
      ],
      "copyright": false,
      "media_type": "Text",
      "formats": {
        "application/epub+zip": "https://www.gutenberg.org/ebooks/135.epub.images",
        "application/rdf+xml": "https://www.gutenberg.org/ebooks/135.rdf",
        "application/x-mobipocket-ebook": "https://www.gutenberg.org/ebooks/135.kindle.images",
        "text/html; charset=utf-8": "https://www.gutenberg.org/files/135/135-h.zip",
        "text/plain; charset=utf-8": "https://www.gutenberg.org/files/135/135-0.zip",
        "image/jpeg": "https://www.gutenberg.org/cache/epub/135/pg135.cover.medium.jpg",
        "text/html": "https://www.gutenberg.org/ebooks/135.html.images"
      },
      "download_count": 5739
    }
  ]
}
